…
### Examples

```
D set variable bitcoin_url = 'https://bitcoin-mainnet.core.chainstack.com/xxx';
D select * from bitcoin_inputs_rpc(886654, 886654, getvariable('bitcoin_url'));
┌─────────────────────┬──────────────┬──────────────────────┬──────────────────────┬────────┬───┬──────────────────────┬──────────────────────┬────────────┬──────────────────────┬──────────────────────┐
│        time         │ block_number │      block_hash      │    transaction_id    │ index  │ … │      script_asm      │      script_hex      │  sequence  │   transaction_hash   │       coinbase       │
│      timestamp      │    int64     │       varchar        │       varchar        │ uint64 │   │       varchar        │       varchar        │   int64    │       varchar        │       varchar        │
├─────────────────────┼──────────────┼──────────────────────┼──────────────────────┼────────┼───┼──────────────────────┼──────────────────────┼────────────┼──────────────────────┼──────────────────────┤
│ 2025-03-07 00:02:24 │       886654 │ 000000000000000000…  │ f397dd542f4f1dd0e7…  │      0 │ … │ NULL                 │ NULL                 │ 4294967295 │ 4bc9f4fbd1f3aea067…  │ 037e870d049037ca67…  │
│ 2025-03-07 00:02:24 │       886654 │ 000000000000000000…  │ 29bb08bd18f253cf73…  │      0 │ … │ 3044022002ccbf5016…  │ 473044022002ccbf50…  │ 4294967295 │ 29bb08bd18f253cf73…  │ NULL                 │
│ 2025-03-07 00:02:24 │       886654 │ 000000000000000000…  │ 87eaf7480075d6fb7a…  │      0 │ … │ 304402205baf71bc73…  │ 47304402205baf71bc…  │ 4294967295 │ 87eaf7480075d6fb7a…  │ NULL                 │
│ 2025-03-07 00:02:24 │       886654 │ 000000000000000000…  │ 87eaf7480075d6fb7a…  │      1 │ … │ 304402207651732d05…  │ 47304402207651732d…  │ 4294967295 │ 87eaf7480075d6fb7a…  │ NULL                 │
│ 2025-03-07 00:02:24 │       886654 │ 000000000000000000…  │ aac453c83e0c485a0d…  │      0 │ … │ 3044022031094ec2ff…  │ 473044022031094ec2…  │ 4294967295 │ aac453c83e0c485a0d…  │ NULL                 │
│ 2025-03-07 00:02:24 │       886654 │ 000000000000000000…  │ aac453c83e0c485a0d…  │      1 │ … │ 304402203da488ceca…  │ 47304402203da488ce…  │ 4294967295 │ aac453c83e0c485a0d…  │ NULL                 │
│ 2025-03-07 00:02:24 │       886654 │ 000000000000000000…  │ 923abcf2a2b2ee60c7…  │      0 │ … │ 3045022100f165fe40…  │ 483045022100f165fe…  │ 4294967295 │ 923abcf2a2b2ee60c7…  │ NULL                 │
│ 2025-03-07 00:02:24 │       886654 │ 000000000000000000…  │ b152cfefd7fed9ecbf…  │      0 │ … │                      │                      │ 4294967295 │ 2926f5f088c432dac9…  │ NULL                 │
│ 2025-03-07 00:02:24 │       886654 │ 000000000000000000…  │ b152cfefd7fed9ecbf…  │      1 │ … │                      │                      │ 4294967295 │ 2926f5f088c432dac9…  │ NULL                 │
│ 2025-03-07 00:02:24 │       886654 │ 000000000000000000…  │ baa9484f319a40cd07…  │      0 │ … │ 30440220474f1cf5ee…  │ 4730440220474f1cf5…  │ 4294967295 │ baa9484f319a40cd07…  │ NULL                 │
│ 2025-03-07 00:02:24 │       886654 │ 000000000000000000…  │ a6eb96f9774e4a9e62…  │      0 │ … │ 00206572d22a14725b…  │ 2200206572d22a1472…  │ 4294967294 │ f62c31d544886f2d12…  │ NULL                 │
│ 2025-03-07 00:02:24 │       886654 │ 000000000000000000…  │ 20601d8961129d37c1…  │      0 │ … │ 0 304402206332c99d…  │ 0047304402206332c9…  │ 4294967293 │ 20601d8961129d37c1…  │ NULL                 │
│ 2025-03-07 00:02:24 │       886654 │ 000000000000000000…  │ d13211fee317dffb48…  │      0 │ … │                      │                      │ 4294967293 │ bc4ade78b58477dc00…  │ NULL                 │
│ 2025-03-07 00:02:24 │       886654 │ 000000000000000000…  │ 395393fac2a58e961a…  │      0 │ … │                      │                      │ 4294967293 │ a31601296a29f580e4…  │ NULL                 │
│ 2025-03-07 00:02:24 │       886654 │ 000000000000000000…  │ a7722fb478b5daa05e…  │      0 │ … │ 304502210080c80b9b…  │ 48304502210080c80b…  │ 4294967295 │ a7722fb478b5daa05e…  │ NULL                 │
│ 2025-03-07 00:02:24 │       886654 │ 000000000000000000…  │ 20b0f864b8a71d252f…  │      0 │ … │                      │                      │ 4294967293 │ 46b3e64c697c4d6c07…  │ NULL                 │
│ 2025-03-07 00:02:24 │       886654 │ 000000000000000000…  │ 98a6cfb1d2760b0683…  │      0 │ … │                      │                      │   20230627 │ 741dab34a51d973779…  │ NULL                 │
│ 2025-03-07 00:02:24 │       886654 │ 000000000000000000…  │ d89ef52e4eb6769bb0…  │      0 │ … │                      │                      │ 4294967293 │ 64432abb9081900051…  │ NULL                 │
│ 2025-03-07 00:02:24 │       886654 │ 000000000000000000…  │ a035140e20b93abad8…  │      0 │ … │                      │                      │ 4294967293 │ 357c4d23d1c75cf282…  │ NULL                 │
│ 2025-03-07 00:02:24 │       886654 │ 000000000000000000…  │ 41e9551e00c738f177…  │      0 │ … │                      │                      │ 4294967293 │ 0f276d41ca61c1c378…  │ NULL                 │
│          ·          │          ·   │          ·           │          ·           │      · │ · │          ·           │          ·           │      ·     │          ·           │  ·                   │
│          ·          │          ·   │          ·           │          ·           │      · │ · │          ·           │          ·           │      ·     │          ·           │  ·                   │
│          ·          │          ·   │          ·           │          ·           │      · │ · │          ·           │          ·           │      ·     │          ·           │  ·                   │
│ 2025-03-07 00:02:24 │       886654 │ 000000000000000000…  │ 567dd63439444794bc…  │    265 │ … │                      │                      │ 4294967293 │ 2922305a6782b4d991…  │ NULL                 │
│ 2025-03-07 00:02:24 │       886654 │ 000000000000000000…  │ 567dd63439444794bc…  │    266 │ … │                      │                      │ 4294967293 │ 2922305a6782b4d991…  │ NULL                 │
│ 2025-03-07 00:02:24 │       886654 │ 000000000000000000…  │ 567dd63439444794bc…  │    267 │ … │                      │                      │ 4294967293 │ 2922305a6782b4d991…  │ NULL                 │
│ 2025-03-07 00:02:24 │       886654 │ 000000000000000000…  │ 567dd63439444794bc…  │    268 │ … │                      │                      │ 4294967293 │ 2922305a6782b4d991…  │ NULL                 │
│ 2025-03-07 00:02:24 │       886654 │ 000000000000000000…  │ 567dd63439444794bc…  │    269 │ … │                      │                      │ 4294967293 │ 2922305a6782b4d991…  │ NULL                 │
│ 2025-03-07 00:02:24 │       886654 │ 000000000000000000…  │ 567dd63439444794bc…  │    270 │ … │                      │                      │ 4294967293 │ 2922305a6782b4d991…  │ NULL                 │
│ 2025-03-07 00:02:24 │       886654 │ 000000000000000000…  │ 567dd63439444794bc…  │    271 │ … │                      │                      │ 4294967293 │ 2922305a6782b4d991…  │ NULL                 │
│ 2025-03-07 00:02:24 │       886654 │ 000000000000000000…  │ 567dd63439444794bc…  │    272 │ … │                      │                      │ 4294967293 │ 2922305a6782b4d991…  │ NULL                 │
│ 2025-03-07 00:02:24 │       886654 │ 000000000000000000…  │ 567dd63439444794bc…  │    273 │ … │                      │                      │ 4294967293 │ 2922305a6782b4d991…  │ NULL                 │
│ 2025-03-07 00:02:24 │       886654 │ 000000000000000000…  │ 567dd63439444794bc…  │    274 │ … │                      │                      │ 4294967293 │ 2922305a6782b4d991…  │ NULL                 │
│ 2025-03-07 00:02:24 │       886654 │ 000000000000000000…  │ 567dd63439444794bc…  │    275 │ … │                      │                      │ 4294967293 │ 2922305a6782b4d991…  │ NULL                 │
│ 2025-03-07 00:02:24 │       886654 │ 000000000000000000…  │ 567dd63439444794bc…  │    276 │ … │                      │                      │ 4294967293 │ 2922305a6782b4d991…  │ NULL                 │
│ 2025-03-07 00:02:24 │       886654 │ 000000000000000000…  │ 567dd63439444794bc…  │    277 │ … │                      │                      │ 4294967293 │ 2922305a6782b4d991…  │ NULL                 │
│ 2025-03-07 00:02:24 │       886654 │ 000000000000000000…  │ 567dd63439444794bc…  │    278 │ … │                      │                      │ 4294967293 │ 2922305a6782b4d991…  │ NULL                 │
│ 2025-03-07 00:02:24 │       886654 │ 000000000000000000…  │ 567dd63439444794bc…  │    279 │ … │                      │                      │ 4294967293 │ 2922305a6782b4d991…  │ NULL                 │
│ 2025-03-07 00:02:24 │       886654 │ 000000000000000000…  │ 567dd63439444794bc…  │    280 │ … │                      │                      │ 4294967293 │ 2922305a6782b4d991…  │ NULL                 │
│ 2025-03-07 00:02:24 │       886654 │ 000000000000000000…  │ 567dd63439444794bc…  │    281 │ … │                      │                      │ 4294967293 │ 2922305a6782b4d991…  │ NULL                 │
│ 2025-03-07 00:02:24 │       886654 │ 000000000000000000…  │ 567dd63439444794bc…  │    282 │ … │                      │                      │ 4294967293 │ 2922305a6782b4d991…  │ NULL                 │
│ 2025-03-07 00:02:24 │       886654 │ 000000000000000000…  │ 567dd63439444794bc…  │    283 │ … │                      │                      │ 4294967293 │ 2922305a6782b4d991…  │ NULL                 │
│ 2025-03-07 00:02:24 │       886654 │ 000000000000000000…  │ d680da9da395543889…  │      0 │ … │                      │                      │ 4294967293 │ b39c5d2e2d19fa0135…  │ NULL                 │
├─────────────────────┴──────────────┴──────────────────────┴──────────────────────┴────────┴───┴──────────────────────┴──────────────────────┴────────────┴──────────────────────┴──────────────────────┤
│ 9561 rows (40 shown)                                                                                                                                                             12 columns (10 shown) │
└────────────────────────────────────────────────────────────────────────────────────────────────────────────────────────────────────────────────────────────────────────────────────────────────────────┘
```
